{
    "created_at": {
        "type": "datetime"
    },
    "updated_at": {
        "type": "datetime"
    },
    "deleted": {
        "type": "boolean",
        "default": false
    },
    "deleted_at": {
        "type": "datetime"
    },
    "id": {
        "type": "number",
        "primary": true
    },
    "maungvien": {
        "type": "string",
        "length": 255
    },
    "tenungvien": {
        "type": "string",
        "length": 255
    },
    "cvfile": {
        "type": "string",
        "length": 255
    },
    "applyfor": {
        "type": "string",
        "length": 255
    },
    "stage": {
        "type": "string",
        "length": 255
    },
    "hrnote": {
        "type": "string",
        "length": 255
    },
    "pool": {
        "type": "string",
        "length": 255
    },
    "whocare": {
        "type": "string",
        "length": 255
    },
    "start_time": {
        "type": "datetime"
    },
    "dob": {
        "type": "string",
        "length": 255
    },
    "week": {
        "type": "string",
        "length": 255
    },
    "source": {
        "type": "string",
        "length": 255
    }
}